ISO-10303-21;
HEADER;
FILE_DESCRIPTION(('Open CASCADE Model'),'2;1');
FILE_NAME('Open CASCADE Shape Model','2021-04-18T10:09:29',('Author'),(
    'Open CASCADE'),'Open CASCADE STEP processor 7.3','Open CASCADE 7.3'
  ,'Unknown');
FILE_SCHEMA(('AUTOMOTIVE_DESIGN { 1 0 10303 214 1 1 1 1 }'));
ENDSEC;
DATA;
#1 = APPLICATION_PROTOCOL_DEFINITION('international standard',
  'automotive_design',2000,#2);
#2 = APPLICATION_CONTEXT(
  'core data for automotive mechanical design processes');
#3 = SHAPE_DEFINITION_REPRESENTATION(#4,#10);
#4 = PRODUCT_DEFINITION_SHAPE('','',#5);
#5 = PRODUCT_DEFINITION('design','',#6,#9);
#6 = PRODUCT_DEFINITION_FORMATION('','',#7);
#7 = PRODUCT('Open CASCADE STEP translator 7.3 1',
  'Open CASCADE STEP translator 7.3 1','',(#8));
#8 = PRODUCT_CONTEXT('',#2,'mechanical');
#9 = PRODUCT_DEFINITION_CONTEXT('part definition',#2,'design');
#10 = SHAPE_REPRESENTATION('',(#11,#15,#19,#23,#27,#31,#35,#39,#43),#47
  );
#11 = AXIS2_PLACEMENT_3D('',#12,#13,#14);
#12 = CARTESIAN_POINT('',(0.,0.,0.));
#13 = DIRECTION('',(0.,0.,1.));
#14 = DIRECTION('',(1.,0.,-0.));
#15 = AXIS2_PLACEMENT_3D('',#16,#17,#18);
#16 = CARTESIAN_POINT('',(0.,0.,0.));
#17 = DIRECTION('',(0.,0.,1.));
#18 = DIRECTION('',(1.,0.,-0.));
#19 = AXIS2_PLACEMENT_3D('',#20,#21,#22);
#20 = CARTESIAN_POINT('',(0.,0.,0.));
#21 = DIRECTION('',(0.,0.,1.));
#22 = DIRECTION('',(1.,0.,-0.));
#23 = AXIS2_PLACEMENT_3D('',#24,#25,#26);
#24 = CARTESIAN_POINT('',(0.,0.,0.));
#25 = DIRECTION('',(0.,0.,1.));
#26 = DIRECTION('',(1.,0.,-0.));
#27 = AXIS2_PLACEMENT_3D('',#28,#29,#30);
#28 = CARTESIAN_POINT('',(0.,0.,0.));
#29 = DIRECTION('',(0.,0.,1.));
#30 = DIRECTION('',(1.,0.,-0.));
#31 = AXIS2_PLACEMENT_3D('',#32,#33,#34);
#32 = CARTESIAN_POINT('',(0.,0.,0.));
#33 = DIRECTION('',(0.,0.,1.));
#34 = DIRECTION('',(1.,0.,-0.));
#35 = AXIS2_PLACEMENT_3D('',#36,#37,#38);
#36 = CARTESIAN_POINT('',(0.,0.,0.));
#37 = DIRECTION('',(0.,0.,1.));
#38 = DIRECTION('',(1.,0.,-0.));
#39 = AXIS2_PLACEMENT_3D('',#40,#41,#42);
#40 = CARTESIAN_POINT('',(0.,0.,0.));
#41 = DIRECTION('',(0.,0.,1.));
#42 = DIRECTION('',(1.,0.,-0.));
#43 = AXIS2_PLACEMENT_3D('',#44,#45,#46);
#44 = CARTESIAN_POINT('',(0.,0.,0.));
#45 = DIRECTION('',(0.,0.,1.));
#46 = DIRECTION('',(1.,0.,-0.));
#47 = ( GEOMETRIC_REPRESENTATION_CONTEXT(3) 
GLOBAL_UNCERTAINTY_ASSIGNED_CONTEXT((#51)) GLOBAL_UNIT_ASSIGNED_CONTEXT(
(#48,#49,#50)) REPRESENTATION_CONTEXT('Context #1',
  '3D Context with UNIT and UNCERTAINTY') );
#48 = ( LENGTH_UNIT() NAMED_UNIT(*) SI_UNIT(.MILLI.,.METRE.) );
#49 = ( NAMED_UNIT(*) PLANE_ANGLE_UNIT() SI_UNIT($,.RADIAN.) );
#50 = ( NAMED_UNIT(*) SI_UNIT($,.STERADIAN.) SOLID_ANGLE_UNIT() );
#51 = UNCERTAINTY_MEASURE_WITH_UNIT(LENGTH_MEASURE(1.E-07),#48,
  'distance_accuracy_value','confusion accuracy');
#52 = PRODUCT_RELATED_PRODUCT_CATEGORY('part',$,(#7));
#53 = GEOMETRICALLY_BOUNDED_WIREFRAME_SHAPE_REPRESENTATION('',(#11,#54),
  #62);
#54 = GEOMETRIC_CURVE_SET('',(#55));
#55 = TRIMMED_CURVE('',#56,(#60,PARAMETER_VALUE(0.)),(#61,
    PARAMETER_VALUE(3.)),.T.,.PARAMETER.);
#56 = LINE('',#57,#58);
#57 = CARTESIAN_POINT('',(3.,0.,0.));
#58 = VECTOR('',#59,1.);
#59 = DIRECTION('',(1.,0.,0.));
#60 = CARTESIAN_POINT('',(3.,0.,0.));
#61 = CARTESIAN_POINT('',(6.,0.,0.));
#62 = ( GEOMETRIC_REPRESENTATION_CONTEXT(3) 
GLOBAL_UNCERTAINTY_ASSIGNED_CONTEXT((#66)) GLOBAL_UNIT_ASSIGNED_CONTEXT(
(#63,#64,#65)) REPRESENTATION_CONTEXT('Context #1',
  '3D Context with UNIT and UNCERTAINTY') );
#63 = ( LENGTH_UNIT() NAMED_UNIT(*) SI_UNIT(.MILLI.,.METRE.) );
#64 = ( NAMED_UNIT(*) PLANE_ANGLE_UNIT() SI_UNIT($,.RADIAN.) );
#65 = ( NAMED_UNIT(*) SI_UNIT($,.STERADIAN.) SOLID_ANGLE_UNIT() );
#66 = UNCERTAINTY_MEASURE_WITH_UNIT(LENGTH_MEASURE(1.E-07),#63,
  'distance_accuracy_value','confusion accuracy');
#67 = SHAPE_DEFINITION_REPRESENTATION(#68,#53);
#68 = PRODUCT_DEFINITION_SHAPE('','',#69);
#69 = PRODUCT_DEFINITION('design','',#70,#73);
#70 = PRODUCT_DEFINITION_FORMATION('','',#71);
#71 = PRODUCT('Open CASCADE STEP translator 7.3 1.1',
  'Open CASCADE STEP translator 7.3 1.1','',(#72));
#72 = PRODUCT_CONTEXT('',#2,'mechanical');
#73 = PRODUCT_DEFINITION_CONTEXT('part definition',#2,'design');
#74 = CONTEXT_DEPENDENT_SHAPE_REPRESENTATION(#75,#77);
#75 = ( REPRESENTATION_RELATIONSHIP('','',#53,#10) 
REPRESENTATION_RELATIONSHIP_WITH_TRANSFORMATION(#76) 
SHAPE_REPRESENTATION_RELATIONSHIP() );
#76 = ITEM_DEFINED_TRANSFORMATION('','',#11,#15);
#77 = PRODUCT_DEFINITION_SHAPE('Placement','Placement of an item',#78);
#78 = NEXT_ASSEMBLY_USAGE_OCCURRENCE('1','','',#5,#69,$);
#79 = PRODUCT_RELATED_PRODUCT_CATEGORY('part',$,(#71));
#80 = GEOMETRICALLY_BOUNDED_WIREFRAME_SHAPE_REPRESENTATION('',(#11,#81),
  #89);
#81 = GEOMETRIC_CURVE_SET('',(#82));
#82 = TRIMMED_CURVE('',#83,(#87,PARAMETER_VALUE(0.)),(#88,
    PARAMETER_VALUE(6.)),.T.,.PARAMETER.);
#83 = LINE('',#84,#85);
#84 = CARTESIAN_POINT('',(6.,0.,0.));
#85 = VECTOR('',#86,1.);
#86 = DIRECTION('',(0.,1.,0.));
#87 = CARTESIAN_POINT('',(6.,0.,0.));
#88 = CARTESIAN_POINT('',(6.,6.,0.));
#89 = ( GEOMETRIC_REPRESENTATION_CONTEXT(3) 
GLOBAL_UNCERTAINTY_ASSIGNED_CONTEXT((#93)) GLOBAL_UNIT_ASSIGNED_CONTEXT(
(#90,#91,#92)) REPRESENTATION_CONTEXT('Context #1',
  '3D Context with UNIT and UNCERTAINTY') );
#90 = ( LENGTH_UNIT() NAMED_UNIT(*) SI_UNIT(.MILLI.,.METRE.) );
#91 = ( NAMED_UNIT(*) PLANE_ANGLE_UNIT() SI_UNIT($,.RADIAN.) );
#92 = ( NAMED_UNIT(*) SI_UNIT($,.STERADIAN.) SOLID_ANGLE_UNIT() );
#93 = UNCERTAINTY_MEASURE_WITH_UNIT(LENGTH_MEASURE(1.E-07),#90,
  'distance_accuracy_value','confusion accuracy');
#94 = SHAPE_DEFINITION_REPRESENTATION(#95,#80);
#95 = PRODUCT_DEFINITION_SHAPE('','',#96);
#96 = PRODUCT_DEFINITION('design','',#97,#100);
#97 = PRODUCT_DEFINITION_FORMATION('','',#98);
#98 = PRODUCT('Open CASCADE STEP translator 7.3 1.2',
  'Open CASCADE STEP translator 7.3 1.2','',(#99));
#99 = PRODUCT_CONTEXT('',#2,'mechanical');
#100 = PRODUCT_DEFINITION_CONTEXT('part definition',#2,'design');
#101 = CONTEXT_DEPENDENT_SHAPE_REPRESENTATION(#102,#104);
#102 = ( REPRESENTATION_RELATIONSHIP('','',#80,#10) 
REPRESENTATION_RELATIONSHIP_WITH_TRANSFORMATION(#103) 
SHAPE_REPRESENTATION_RELATIONSHIP() );
#103 = ITEM_DEFINED_TRANSFORMATION('','',#11,#19);
#104 = PRODUCT_DEFINITION_SHAPE('Placement','Placement of an item',#105
  );
#105 = NEXT_ASSEMBLY_USAGE_OCCURRENCE('2','','',#5,#96,$);
#106 = PRODUCT_RELATED_PRODUCT_CATEGORY('part',$,(#98));
#107 = GEOMETRICALLY_BOUNDED_WIREFRAME_SHAPE_REPRESENTATION('',(#11,#108
    ),#116);
#108 = GEOMETRIC_CURVE_SET('',(#109));
#109 = TRIMMED_CURVE('',#110,(#114,PARAMETER_VALUE(0.)),(#115,
    PARAMETER_VALUE(6.)),.T.,.PARAMETER.);
#110 = LINE('',#111,#112);
#111 = CARTESIAN_POINT('',(6.,6.,0.));
#112 = VECTOR('',#113,1.);
#113 = DIRECTION('',(-1.,0.,0.));
#114 = CARTESIAN_POINT('',(6.,6.,0.));
#115 = CARTESIAN_POINT('',(0.,6.,0.));
#116 = ( GEOMETRIC_REPRESENTATION_CONTEXT(3) 
GLOBAL_UNCERTAINTY_ASSIGNED_CONTEXT((#120)) GLOBAL_UNIT_ASSIGNED_CONTEXT
((#117,#118,#119)) REPRESENTATION_CONTEXT('Context #1',
  '3D Context with UNIT and UNCERTAINTY') );
#117 = ( LENGTH_UNIT() NAMED_UNIT(*) SI_UNIT(.MILLI.,.METRE.) );
#118 = ( NAMED_UNIT(*) PLANE_ANGLE_UNIT() SI_UNIT($,.RADIAN.) );
#119 = ( NAMED_UNIT(*) SI_UNIT($,.STERADIAN.) SOLID_ANGLE_UNIT() );
#120 = UNCERTAINTY_MEASURE_WITH_UNIT(LENGTH_MEASURE(1.E-07),#117,
  'distance_accuracy_value','confusion accuracy');
#121 = SHAPE_DEFINITION_REPRESENTATION(#122,#107);
#122 = PRODUCT_DEFINITION_SHAPE('','',#123);
#123 = PRODUCT_DEFINITION('design','',#124,#127);
#124 = PRODUCT_DEFINITION_FORMATION('','',#125);
#125 = PRODUCT('Open CASCADE STEP translator 7.3 1.3',
  'Open CASCADE STEP translator 7.3 1.3','',(#126));
#126 = PRODUCT_CONTEXT('',#2,'mechanical');
#127 = PRODUCT_DEFINITION_CONTEXT('part definition',#2,'design');
#128 = CONTEXT_DEPENDENT_SHAPE_REPRESENTATION(#129,#131);
#129 = ( REPRESENTATION_RELATIONSHIP('','',#107,#10) 
REPRESENTATION_RELATIONSHIP_WITH_TRANSFORMATION(#130) 
SHAPE_REPRESENTATION_RELATIONSHIP() );
#130 = ITEM_DEFINED_TRANSFORMATION('','',#11,#23);
#131 = PRODUCT_DEFINITION_SHAPE('Placement','Placement of an item',#132
  );
#132 = NEXT_ASSEMBLY_USAGE_OCCURRENCE('3','','',#5,#123,$);
#133 = PRODUCT_RELATED_PRODUCT_CATEGORY('part',$,(#125));
#134 = GEOMETRICALLY_BOUNDED_WIREFRAME_SHAPE_REPRESENTATION('',(#11,#135
    ),#143);
#135 = GEOMETRIC_CURVE_SET('',(#136));
#136 = TRIMMED_CURVE('',#137,(#141,PARAMETER_VALUE(0.)),(#142,
    PARAMETER_VALUE(3.)),.T.,.PARAMETER.);
#137 = LINE('',#138,#139);
#138 = CARTESIAN_POINT('',(0.,6.,0.));
#139 = VECTOR('',#140,1.);
#140 = DIRECTION('',(0.,-1.,0.));
#141 = CARTESIAN_POINT('',(0.,6.,0.));
#142 = CARTESIAN_POINT('',(0.,3.,0.));
#143 = ( GEOMETRIC_REPRESENTATION_CONTEXT(3) 
GLOBAL_UNCERTAINTY_ASSIGNED_CONTEXT((#147)) GLOBAL_UNIT_ASSIGNED_CONTEXT
((#144,#145,#146)) REPRESENTATION_CONTEXT('Context #1',
  '3D Context with UNIT and UNCERTAINTY') );
#144 = ( LENGTH_UNIT() NAMED_UNIT(*) SI_UNIT(.MILLI.,.METRE.) );
#145 = ( NAMED_UNIT(*) PLANE_ANGLE_UNIT() SI_UNIT($,.RADIAN.) );
#146 = ( NAMED_UNIT(*) SI_UNIT($,.STERADIAN.) SOLID_ANGLE_UNIT() );
#147 = UNCERTAINTY_MEASURE_WITH_UNIT(LENGTH_MEASURE(1.E-07),#144,
  'distance_accuracy_value','confusion accuracy');
#148 = SHAPE_DEFINITION_REPRESENTATION(#149,#134);
#149 = PRODUCT_DEFINITION_SHAPE('','',#150);
#150 = PRODUCT_DEFINITION('design','',#151,#154);
#151 = PRODUCT_DEFINITION_FORMATION('','',#152);
#152 = PRODUCT('Open CASCADE STEP translator 7.3 1.4',
  'Open CASCADE STEP translator 7.3 1.4','',(#153));
#153 = PRODUCT_CONTEXT('',#2,'mechanical');
#154 = PRODUCT_DEFINITION_CONTEXT('part definition',#2,'design');
#155 = CONTEXT_DEPENDENT_SHAPE_REPRESENTATION(#156,#158);
#156 = ( REPRESENTATION_RELATIONSHIP('','',#134,#10) 
REPRESENTATION_RELATIONSHIP_WITH_TRANSFORMATION(#157) 
SHAPE_REPRESENTATION_RELATIONSHIP() );
#157 = ITEM_DEFINED_TRANSFORMATION('','',#11,#27);
#158 = PRODUCT_DEFINITION_SHAPE('Placement','Placement of an item',#159
  );
#159 = NEXT_ASSEMBLY_USAGE_OCCURRENCE('4','','',#5,#150,$);
#160 = PRODUCT_RELATED_PRODUCT_CATEGORY('part',$,(#152));
#161 = GEOMETRICALLY_BOUNDED_WIREFRAME_SHAPE_REPRESENTATION('',(#11,#162
    ),#171);
#162 = GEOMETRIC_CURVE_SET('',(#163));
#163 = TRIMMED_CURVE('',#164,(#169,PARAMETER_VALUE(4.712388980385)),(
    #170,PARAMETER_VALUE(6.28318530718)),.T.,.PARAMETER.);
#164 = CIRCLE('',#165,3.);
#165 = AXIS2_PLACEMENT_3D('',#166,#167,#168);
#166 = CARTESIAN_POINT('',(0.,0.,0.));
#167 = DIRECTION('',(-0.,-0.,-1.));
#168 = DIRECTION('',(1.,0.,-0.));
#169 = CARTESIAN_POINT('',(0.,3.,0.));
#170 = CARTESIAN_POINT('',(3.,0.,0.));
#171 = ( GEOMETRIC_REPRESENTATION_CONTEXT(3) 
GLOBAL_UNCERTAINTY_ASSIGNED_CONTEXT((#175)) GLOBAL_UNIT_ASSIGNED_CONTEXT
((#172,#173,#174)) REPRESENTATION_CONTEXT('Context #1',
  '3D Context with UNIT and UNCERTAINTY') );
#172 = ( LENGTH_UNIT() NAMED_UNIT(*) SI_UNIT(.MILLI.,.METRE.) );
#173 = ( NAMED_UNIT(*) PLANE_ANGLE_UNIT() SI_UNIT($,.RADIAN.) );
#174 = ( NAMED_UNIT(*) SI_UNIT($,.STERADIAN.) SOLID_ANGLE_UNIT() );
#175 = UNCERTAINTY_MEASURE_WITH_UNIT(LENGTH_MEASURE(1.E-07),#172,
  'distance_accuracy_value','confusion accuracy');
#176 = SHAPE_DEFINITION_REPRESENTATION(#177,#161);
#177 = PRODUCT_DEFINITION_SHAPE('','',#178);
#178 = PRODUCT_DEFINITION('design','',#179,#182);
#179 = PRODUCT_DEFINITION_FORMATION('','',#180);
#180 = PRODUCT('Open CASCADE STEP translator 7.3 1.5',
  'Open CASCADE STEP translator 7.3 1.5','',(#181));
#181 = PRODUCT_CONTEXT('',#2,'mechanical');
#182 = PRODUCT_DEFINITION_CONTEXT('part definition',#2,'design');
#183 = CONTEXT_DEPENDENT_SHAPE_REPRESENTATION(#184,#186);
#184 = ( REPRESENTATION_RELATIONSHIP('','',#161,#10) 
REPRESENTATION_RELATIONSHIP_WITH_TRANSFORMATION(#185) 
SHAPE_REPRESENTATION_RELATIONSHIP() );
#185 = ITEM_DEFINED_TRANSFORMATION('','',#11,#31);
#186 = PRODUCT_DEFINITION_SHAPE('Placement','Placement of an item',#187
  );
#187 = NEXT_ASSEMBLY_USAGE_OCCURRENCE('5','','',#5,#178,$);
#188 = PRODUCT_RELATED_PRODUCT_CATEGORY('part',$,(#180));
#189 = GEOMETRICALLY_BOUNDED_WIREFRAME_SHAPE_REPRESENTATION('',(#11,#190
    ),#227);
#190 = GEOMETRIC_CURVE_SET('',(#191,#198,#205,#212,#219));
#191 = TRIMMED_CURVE('',#192,(#196,PARAMETER_VALUE(0.)),(#197,
    PARAMETER_VALUE(3.)),.T.,.PARAMETER.);
#192 = LINE('',#193,#194);
#193 = CARTESIAN_POINT('',(3.,0.,0.));
#194 = VECTOR('',#195,1.);
#195 = DIRECTION('',(1.,0.,0.));
#196 = CARTESIAN_POINT('',(3.,0.,0.));
#197 = CARTESIAN_POINT('',(6.,0.,0.));
#198 = TRIMMED_CURVE('',#199,(#203,PARAMETER_VALUE(0.)),(#204,
    PARAMETER_VALUE(6.)),.T.,.PARAMETER.);
#199 = LINE('',#200,#201);
#200 = CARTESIAN_POINT('',(6.,0.,0.));
#201 = VECTOR('',#202,1.);
#202 = DIRECTION('',(0.,1.,0.));
#203 = CARTESIAN_POINT('',(6.,0.,0.));
#204 = CARTESIAN_POINT('',(6.,6.,0.));
#205 = TRIMMED_CURVE('',#206,(#210,PARAMETER_VALUE(0.)),(#211,
    PARAMETER_VALUE(6.)),.T.,.PARAMETER.);
#206 = LINE('',#207,#208);
#207 = CARTESIAN_POINT('',(6.,6.,0.));
#208 = VECTOR('',#209,1.);
#209 = DIRECTION('',(-1.,0.,0.));
#210 = CARTESIAN_POINT('',(6.,6.,0.));
#211 = CARTESIAN_POINT('',(0.,6.,0.));
#212 = TRIMMED_CURVE('',#213,(#217,PARAMETER_VALUE(0.)),(#218,
    PARAMETER_VALUE(3.)),.T.,.PARAMETER.);
#213 = LINE('',#214,#215);
#214 = CARTESIAN_POINT('',(0.,6.,0.));
#215 = VECTOR('',#216,1.);
#216 = DIRECTION('',(0.,-1.,0.));
#217 = CARTESIAN_POINT('',(0.,6.,0.));
#218 = CARTESIAN_POINT('',(0.,3.,0.));
#219 = TRIMMED_CURVE('',#220,(#225,PARAMETER_VALUE(4.712388980385)),(
    #226,PARAMETER_VALUE(6.28318530718)),.T.,.PARAMETER.);
#220 = CIRCLE('',#221,3.);
#221 = AXIS2_PLACEMENT_3D('',#222,#223,#224);
#222 = CARTESIAN_POINT('',(0.,0.,0.));
#223 = DIRECTION('',(-0.,-0.,-1.));
#224 = DIRECTION('',(1.,0.,-0.));
#225 = CARTESIAN_POINT('',(0.,3.,0.));
#226 = CARTESIAN_POINT('',(3.,0.,0.));
#227 = ( GEOMETRIC_REPRESENTATION_CONTEXT(3) 
GLOBAL_UNCERTAINTY_ASSIGNED_CONTEXT((#231)) GLOBAL_UNIT_ASSIGNED_CONTEXT
((#228,#229,#230)) REPRESENTATION_CONTEXT('Context #1',
  '3D Context with UNIT and UNCERTAINTY') );
#228 = ( LENGTH_UNIT() NAMED_UNIT(*) SI_UNIT(.MILLI.,.METRE.) );
#229 = ( NAMED_UNIT(*) PLANE_ANGLE_UNIT() SI_UNIT($,.RADIAN.) );
#230 = ( NAMED_UNIT(*) SI_UNIT($,.STERADIAN.) SOLID_ANGLE_UNIT() );
#231 = UNCERTAINTY_MEASURE_WITH_UNIT(LENGTH_MEASURE(1.E-07),#228,
  'distance_accuracy_value','confusion accuracy');
#232 = SHAPE_DEFINITION_REPRESENTATION(#233,#189);
#233 = PRODUCT_DEFINITION_SHAPE('','',#234);
#234 = PRODUCT_DEFINITION('design','',#235,#238);
#235 = PRODUCT_DEFINITION_FORMATION('','',#236);
#236 = PRODUCT('Open CASCADE STEP translator 7.3 1.6',
  'Open CASCADE STEP translator 7.3 1.6','',(#237));
#237 = PRODUCT_CONTEXT('',#2,'mechanical');
#238 = PRODUCT_DEFINITION_CONTEXT('part definition',#2,'design');
#239 = CONTEXT_DEPENDENT_SHAPE_REPRESENTATION(#240,#242);
#240 = ( REPRESENTATION_RELATIONSHIP('','',#189,#10) 
REPRESENTATION_RELATIONSHIP_WITH_TRANSFORMATION(#241) 
SHAPE_REPRESENTATION_RELATIONSHIP() );
#241 = ITEM_DEFINED_TRANSFORMATION('','',#11,#35);
#242 = PRODUCT_DEFINITION_SHAPE('Placement','Placement of an item',#243
  );
#243 = NEXT_ASSEMBLY_USAGE_OCCURRENCE('6','','',#5,#234,$);
#244 = PRODUCT_RELATED_PRODUCT_CATEGORY('part',$,(#236));
#245 = MANIFOLD_SURFACE_SHAPE_REPRESENTATION('',(#11,#246),#341);
#246 = SHELL_BASED_SURFACE_MODEL('',(#247));
#247 = OPEN_SHELL('',(#248));
#248 = ADVANCED_FACE('',(#249),#263,.T.);
#249 = FACE_BOUND('',#250,.T.);
#250 = EDGE_LOOP('',(#251,#274,#290,#306,#322));
#251 = ORIENTED_EDGE('',*,*,#252,.T.);
#252 = EDGE_CURVE('',#253,#255,#257,.T.);
#253 = VERTEX_POINT('',#254);
#254 = CARTESIAN_POINT('',(3.,0.,0.));
#255 = VERTEX_POINT('',#256);
#256 = CARTESIAN_POINT('',(6.,0.,0.));
#257 = SURFACE_CURVE('',#258,(#262),.PCURVE_S1.);
#258 = LINE('',#259,#260);
#259 = CARTESIAN_POINT('',(3.,0.,0.));
#260 = VECTOR('',#261,1.);
#261 = DIRECTION('',(1.,0.,0.));
#262 = PCURVE('',#263,#268);
#263 = PLANE('',#264);
#264 = AXIS2_PLACEMENT_3D('',#265,#266,#267);
#265 = CARTESIAN_POINT('',(3.362646068641,3.362646068641,0.));
#266 = DIRECTION('',(0.,0.,1.));
#267 = DIRECTION('',(1.,0.,-0.));
#268 = DEFINITIONAL_REPRESENTATION('',(#269),#273);
#269 = LINE('',#270,#271);
#270 = CARTESIAN_POINT('',(-0.362646068641,-3.362646068641));
#271 = VECTOR('',#272,1.);
#272 = DIRECTION('',(1.,0.));
#273 = ( GEOMETRIC_REPRESENTATION_CONTEXT(2) 
PARAMETRIC_REPRESENTATION_CONTEXT() REPRESENTATION_CONTEXT('2D SPACE',''
  ) );
#274 = ORIENTED_EDGE('',*,*,#275,.T.);
#275 = EDGE_CURVE('',#255,#276,#278,.T.);
#276 = VERTEX_POINT('',#277);
#277 = CARTESIAN_POINT('',(6.,6.,0.));
#278 = SURFACE_CURVE('',#279,(#283),.PCURVE_S1.);
#279 = LINE('',#280,#281);
#280 = CARTESIAN_POINT('',(6.,0.,0.));
#281 = VECTOR('',#282,1.);
#282 = DIRECTION('',(0.,1.,0.));
#283 = PCURVE('',#263,#284);
#284 = DEFINITIONAL_REPRESENTATION('',(#285),#289);
#285 = LINE('',#286,#287);
#286 = CARTESIAN_POINT('',(2.637353931359,-3.362646068641));
#287 = VECTOR('',#288,1.);
#288 = DIRECTION('',(0.,1.));
#289 = ( GEOMETRIC_REPRESENTATION_CONTEXT(2) 
PARAMETRIC_REPRESENTATION_CONTEXT() REPRESENTATION_CONTEXT('2D SPACE',''
  ) );
#290 = ORIENTED_EDGE('',*,*,#291,.T.);
#291 = EDGE_CURVE('',#276,#292,#294,.T.);
#292 = VERTEX_POINT('',#293);
#293 = CARTESIAN_POINT('',(0.,6.,0.));
#294 = SURFACE_CURVE('',#295,(#299),.PCURVE_S1.);
#295 = LINE('',#296,#297);
#296 = CARTESIAN_POINT('',(6.,6.,0.));
#297 = VECTOR('',#298,1.);
#298 = DIRECTION('',(-1.,0.,0.));
#299 = PCURVE('',#263,#300);
#300 = DEFINITIONAL_REPRESENTATION('',(#301),#305);
#301 = LINE('',#302,#303);
#302 = CARTESIAN_POINT('',(2.637353931359,2.637353931359));
#303 = VECTOR('',#304,1.);
#304 = DIRECTION('',(-1.,0.));
#305 = ( GEOMETRIC_REPRESENTATION_CONTEXT(2) 
PARAMETRIC_REPRESENTATION_CONTEXT() REPRESENTATION_CONTEXT('2D SPACE',''
  ) );
#306 = ORIENTED_EDGE('',*,*,#307,.T.);
#307 = EDGE_CURVE('',#292,#308,#310,.T.);
#308 = VERTEX_POINT('',#309);
#309 = CARTESIAN_POINT('',(0.,3.,0.));
#310 = SURFACE_CURVE('',#311,(#315),.PCURVE_S1.);
#311 = LINE('',#312,#313);
#312 = CARTESIAN_POINT('',(0.,6.,0.));
#313 = VECTOR('',#314,1.);
#314 = DIRECTION('',(0.,-1.,0.));
#315 = PCURVE('',#263,#316);
#316 = DEFINITIONAL_REPRESENTATION('',(#317),#321);
#317 = LINE('',#318,#319);
#318 = CARTESIAN_POINT('',(-3.362646068641,2.637353931359));
#319 = VECTOR('',#320,1.);
#320 = DIRECTION('',(0.,-1.));
#321 = ( GEOMETRIC_REPRESENTATION_CONTEXT(2) 
PARAMETRIC_REPRESENTATION_CONTEXT() REPRESENTATION_CONTEXT('2D SPACE',''
  ) );
#322 = ORIENTED_EDGE('',*,*,#323,.T.);
#323 = EDGE_CURVE('',#308,#253,#324,.T.);
#324 = SURFACE_CURVE('',#325,(#330),.PCURVE_S1.);
#325 = CIRCLE('',#326,3.);
#326 = AXIS2_PLACEMENT_3D('',#327,#328,#329);
#327 = CARTESIAN_POINT('',(0.,0.,0.));
#328 = DIRECTION('',(0.,-0.,-1.));
#329 = DIRECTION('',(1.,0.,-0.));
#330 = PCURVE('',#263,#331);
#331 = DEFINITIONAL_REPRESENTATION('',(#332),#340);
#332 = ( BOUNDED_CURVE() B_SPLINE_CURVE(2,(#333,#334,#335,#336,#337,#338
,#339),.UNSPECIFIED.,.T.,.F.) B_SPLINE_CURVE_WITH_KNOTS((1,2,2,2,2,1),(
    -2.094395102393,0.,2.094395102393,4.188790204786,6.28318530718,
8.377580409573),.UNSPECIFIED.) CURVE() GEOMETRIC_REPRESENTATION_ITEM() 
RATIONAL_B_SPLINE_CURVE((1.,0.5,1.,0.5,1.,0.5,1.)) REPRESENTATION_ITEM(
  '') );
#333 = CARTESIAN_POINT('',(-0.362646068641,-3.362646068641));
#334 = CARTESIAN_POINT('',(-0.362646068641,-8.558798491348));
#335 = CARTESIAN_POINT('',(-4.862646068641,-5.960722279994));
#336 = CARTESIAN_POINT('',(-9.362646068641,-3.362646068641));
#337 = CARTESIAN_POINT('',(-4.862646068641,-0.764569857288));
#338 = CARTESIAN_POINT('',(-0.362646068641,1.833506354066));
#339 = CARTESIAN_POINT('',(-0.362646068641,-3.362646068641));
#340 = ( GEOMETRIC_REPRESENTATION_CONTEXT(2) 
PARAMETRIC_REPRESENTATION_CONTEXT() REPRESENTATION_CONTEXT('2D SPACE',''
  ) );
#341 = ( GEOMETRIC_REPRESENTATION_CONTEXT(3) 
GLOBAL_UNCERTAINTY_ASSIGNED_CONTEXT((#345)) GLOBAL_UNIT_ASSIGNED_CONTEXT
((#342,#343,#344)) REPRESENTATION_CONTEXT('Context #1',
  '3D Context with UNIT and UNCERTAINTY') );
#342 = ( LENGTH_UNIT() NAMED_UNIT(*) SI_UNIT(.MILLI.,.METRE.) );
#343 = ( NAMED_UNIT(*) PLANE_ANGLE_UNIT() SI_UNIT($,.RADIAN.) );
#344 = ( NAMED_UNIT(*) SI_UNIT($,.STERADIAN.) SOLID_ANGLE_UNIT() );
#345 = UNCERTAINTY_MEASURE_WITH_UNIT(LENGTH_MEASURE(1.E-07),#342,
  'distance_accuracy_value','confusion accuracy');
#346 = SHAPE_DEFINITION_REPRESENTATION(#347,#245);
#347 = PRODUCT_DEFINITION_SHAPE('','',#348);
#348 = PRODUCT_DEFINITION('design','',#349,#352);
#349 = PRODUCT_DEFINITION_FORMATION('','',#350);
#350 = PRODUCT('Open CASCADE STEP translator 7.3 1.7',
  'Open CASCADE STEP translator 7.3 1.7','',(#351));
#351 = PRODUCT_CONTEXT('',#2,'mechanical');
#352 = PRODUCT_DEFINITION_CONTEXT('part definition',#2,'design');
#353 = CONTEXT_DEPENDENT_SHAPE_REPRESENTATION(#354,#356);
#354 = ( REPRESENTATION_RELATIONSHIP('','',#245,#10) 
REPRESENTATION_RELATIONSHIP_WITH_TRANSFORMATION(#355) 
SHAPE_REPRESENTATION_RELATIONSHIP() );
#355 = ITEM_DEFINED_TRANSFORMATION('','',#11,#39);
#356 = PRODUCT_DEFINITION_SHAPE('Placement','Placement of an item',#357
  );
#357 = NEXT_ASSEMBLY_USAGE_OCCURRENCE('7','','',#5,#348,$);
#358 = PRODUCT_RELATED_PRODUCT_CATEGORY('part',$,(#350));
#359 = GEOMETRICALLY_BOUNDED_WIREFRAME_SHAPE_REPRESENTATION('',(#11,#360
    ),#366);
#360 = GEOMETRIC_CURVE_SET('',(#361,#362,#363,#364,#365));
#361 = CARTESIAN_POINT('',(3.,0.,0.));
#362 = CARTESIAN_POINT('',(6.,0.,0.));
#363 = CARTESIAN_POINT('',(6.,6.,0.));
#364 = CARTESIAN_POINT('',(0.,6.,0.));
#365 = CARTESIAN_POINT('',(0.,3.,0.));
#366 = ( GEOMETRIC_REPRESENTATION_CONTEXT(3) 
GLOBAL_UNCERTAINTY_ASSIGNED_CONTEXT((#370)) GLOBAL_UNIT_ASSIGNED_CONTEXT
((#367,#368,#369)) REPRESENTATION_CONTEXT('Context #1',
  '3D Context with UNIT and UNCERTAINTY') );
#367 = ( LENGTH_UNIT() NAMED_UNIT(*) SI_UNIT(.MILLI.,.METRE.) );
#368 = ( NAMED_UNIT(*) PLANE_ANGLE_UNIT() SI_UNIT($,.RADIAN.) );
#369 = ( NAMED_UNIT(*) SI_UNIT($,.STERADIAN.) SOLID_ANGLE_UNIT() );
#370 = UNCERTAINTY_MEASURE_WITH_UNIT(LENGTH_MEASURE(1.E-07),#367,
  'distance_accuracy_value','confusion accuracy');
#371 = SHAPE_DEFINITION_REPRESENTATION(#372,#359);
#372 = PRODUCT_DEFINITION_SHAPE('','',#373);
#373 = PRODUCT_DEFINITION('design','',#374,#377);
#374 = PRODUCT_DEFINITION_FORMATION('','',#375);
#375 = PRODUCT('Open CASCADE STEP translator 7.3 1.8',
  'Open CASCADE STEP translator 7.3 1.8','',(#376));
#376 = PRODUCT_CONTEXT('',#2,'mechanical');
#377 = PRODUCT_DEFINITION_CONTEXT('part definition',#2,'design');
#378 = CONTEXT_DEPENDENT_SHAPE_REPRESENTATION(#379,#381);
#379 = ( REPRESENTATION_RELATIONSHIP('','',#359,#10) 
REPRESENTATION_RELATIONSHIP_WITH_TRANSFORMATION(#380) 
SHAPE_REPRESENTATION_RELATIONSHIP() );
#380 = ITEM_DEFINED_TRANSFORMATION('','',#11,#43);
#381 = PRODUCT_DEFINITION_SHAPE('Placement','Placement of an item',#382
  );
#382 = NEXT_ASSEMBLY_USAGE_OCCURRENCE('8','','',#5,#373,$);
#383 = PRODUCT_RELATED_PRODUCT_CATEGORY('part',$,(#375));
ENDSEC;
END-ISO-10303-21;
